<?xml version="1.0" encoding="utf-8"?>
<!-- Generator: Adobe Illustrator 19.0.0, SVG Export Plug-In . SVG Version: 6.00 Build 0)  -->
<svg version="1.1" id="Layer_1" xmlns="http://www.w3.org/2000/svg" xmlns:xlink="http://www.w3.org/1999/xlink" x="0px" y="0px"
	 viewBox="0 0 641.2 179" style="enable-background:new 0 0 641.2 179;" xml:space="preserve">
<style type="text/css">
	.st0{fill:#F6EC13;}
	.st1{fill:#2E407F;}
	.st2{fill:#2C88C6;}
	.st3{fill:#2964AC;}
	.st4{fill:#5D5E5E;}
</style>
<g>
	<g>
		<path class="st0" d="M172.4,104c-2.3-0.9-4.9,1.4-4.2,3.7c0.4,2.3,3.5,3.3,5.3,1.8C175.2,108,174.6,104.7,172.4,104z"/>
		<path class="st0" d="M174,87.4c-2-0.8-4.4,1.2-3.8,3.3c0.3,2.1,3.2,3,4.7,1.6C176.6,91,176.1,88,174,87.4z"/>
		<path class="st1" d="M132.9,82c-12-7.9-27.1-11.3-41.2-8.2c-7.6,1.7-14.6,5.4-20.7,10c0.8,2.2,1.4,4.6,0.7,7
			c-0.4,1.7-1.4,3.1-2.6,4.3c0.7-1.6,1.6-3.3,1.5-5.1c-0.1-3.4-1.4-6.8-4-9.1c-4.3-3.8-11.1-4.2-15.9-1.2c-3.3,2-5.6,5.7-5.5,9.6
			c0,2.7,1.2,5.2,2.9,7.2c-6.9,1.3-13.6,3.8-19.6,7.4c-4.4,2.7-8.5,6.1-12.2,9.7c-3,3-5.9,6.3-8.1,9.9c0,0.1-0.1,0.2-0.2,0.3
			c1.1-0.8,1.9-1.8,2.8-2.7c2.4-2.4,5.1-4.5,7.9-6.4c9.8-6.6,21.8-9.4,33.5-9.2c7-0.2,13.9,1,20.6,2.9c11.5,3.3,22.6,8.2,34.6,10.1
			c9,1.6,18.4,1.9,27.2-0.9c7-2.2,13.2-6.3,18.2-11.7c3.6-3.9,6.8-8.3,9.3-13.1c-3,2.8-5.9,5.6-9.3,7.9c-6.9,5-15.2,8.2-23.7,8.9
			c-7.1,0.5-14.3-0.2-21.1-2.5c-6.2-2.1-12.3-5.1-17.3-9.4c-2.1-1.9-4.2-4.3-4.5-7.3c-0.2-2.4,1.9-3.9,3.6-5.2
			c5.6-4,12.6-5.7,19.4-6.3C117.3,78.2,125.3,79.7,132.9,82z"/>
		<path class="st0" d="M167.3,119.3c-2.7-1.1-5.9,1.6-5.1,4.5c0.5,2.8,4.2,4,6.3,2.1C170.8,124.2,170.1,120.1,167.3,119.3z"/>
		<path class="st0" d="M159.3,133.4c-2.7-1.3-6.3,1-6.1,4.1c-0.1,2.6,2.5,4.8,5.1,4.4c2.1-0.3,3.8-2.2,3.7-4.4
			C162,135.8,160.9,134.1,159.3,133.4z"/>
		<path class="st0" d="M147.8,145.4c-2.6-0.9-5.7,0.9-6.2,3.6c-0.8,2.8,1.5,5.9,4.4,6c2.6,0.3,5.1-1.8,5.3-4.4
			C151.6,148.3,150,146,147.8,145.4z"/>
		<path class="st0" d="M134,155c-3-0.8-6.4,1.5-6.6,4.7c-0.5,3.1,2.2,6.2,5.3,6.1c2.9,0.2,5.6-2.4,5.6-5.3
			C138.4,157.9,136.4,155.5,134,155z"/>
		<path class="st0" d="M118.6,161.9c-3.4-1-7.2,1.6-7.5,5.1c-0.6,3.8,3.2,7.4,6.9,6.6c3.4-0.4,5.7-4.1,4.8-7.4
			C122.4,164.2,120.7,162.4,118.6,161.9z"/>
		<path class="st0" d="M101,165.3c-3.7-0.9-7.7,2.1-7.8,5.9c-0.4,3.7,2.8,7.2,6.5,7c3.7,0.2,6.9-3.4,6.5-7.1
			C106,168.4,103.8,165.9,101,165.3z"/>
		<path class="st0" d="M83.5,165.3c-2.6-1-5.9-0.3-7.8,1.8c-2,2.1-2.4,5.5-1,8.1c1.3,2.7,4.5,4.2,7.5,3.6c3.1-0.5,5.7-3.3,5.8-6.5
			C88.2,169.3,86.3,166.3,83.5,165.3z"/>
		<path class="st0" d="M3,64.1C6.2,52.2,11.9,41,19.8,31.6c2.8-3.4,5.8-6.7,9.2-9.5l0-0.1c4.3-3.8,9-7.2,14-10.1
			c5.8-3.4,12-6.1,18.5-8.1c4.9-1.5,9.9-2.5,14.9-3.1C82,0,87.6-0.2,93.2,0.3c3,0.2,5.9,0.6,8.9,1.1v0c3.7,0.6,7.4,1.6,11,2.7
			c4,1.3,7.8,2.8,11.6,4.6c4,2,7.9,4.2,11.6,6.8c4.9,3.3,9.3,7.3,13.4,11.5l0,0.1c5.5,5.7,10.1,12.2,13.7,19.2
			c6.4,11.9,9.7,25.3,9.9,38.8c-1.5-10.6-4.9-20.9-10.4-30.1c-3.7-6.3-8.3-12.1-13.6-17.2c-4.1-3.9-8.6-7.4-13.4-10.3
			c-3.6-2.2-7.5-4.2-11.4-5.8c-3.7-1.6-7.6-2.8-11.5-3.8c-3.6-0.9-7.3-1.5-11-1.9c-4-0.4-8-0.4-12-0.3c-4.7,0.3-9.3,0.9-13.9,2
			c-5,1.1-10,2.8-14.6,5c-6.5,3.1-12.7,7-18.3,11.6c-5.3,4.2-9.9,9.1-13.8,14.5c-3.6,5-6.6,10.5-9,16.2c-6.3,15.3-7.7,32.5-3.9,48.6
			c-3,3-5.9,6.3-8.1,9.9c-2.7-5.3-4.5-10.9-5.9-16.7C-1,92.8-0.8,78,3,64.1z"/>
		<path class="st2" d="M118.8,38c11.4,5.4,21,14.4,27.3,25.3c3.2,5.5,5.4,11.4,6.8,17.6c0.8,3.5,1.2,7.1,1.4,10.7
			c0.1,1.7,0.1,3.4,0,5.1c-3.3,2.7-7,5.1-10.9,6.8c0.7-4.7,0.9-9.5,0.4-14.2c-0.3-3.5-1-7-1.9-10.3c-1.7-6.4-4.7-12.5-8.3-18.1
			l-0.1,0c-9-13.3-23.6-22.7-39.4-25.4C86.1,34,78,34.4,70.2,36C85.8,30,103.8,30.8,118.8,38z"/>
		<path class="st3" d="M13.1,133.3c3.3-3.6,6.7-7,10.5-10c2.2-1.8,4.5-3.5,6.9-4.9c5.5-3.4,11.8-5.8,18.2-6.4
			c8.6-0.9,17.2,0.8,25.5,3.2c12.8,3.7,25.4,8.6,38.5,11c8,1.4,16.4,1.8,24.4-0.1c3.7-0.9,7.2-2.2,10.6-3.9
			c-1.4,2.8-3.1,5.5-4.8,8.1c-2.6,4.4-5.7,8.5-9.5,12.1c-5.8,5.6-12.8,9.8-20.3,12.6c-13.3,4.8-28.4,4.8-41.5-0.7
			c-12.4-5-22.5-14.9-28.6-26.7c6.1,8,14.3,14.4,23.5,18.4c10.3,4.5,21.8,6.2,32.9,4.8c9.1-1.3,18-4.7,25.2-10.5
			c2.2-1.7,4.2-3.6,6.1-5.6c-7.3,0.8-14.8,0.2-22-1.4c-13-2.9-25.2-8.6-38-12.3c-6.2-1.7-12.5-3-18.9-3c-5.1-0.1-10.2,0.7-15.1,2.3
			c-4.1,1.3-8,3.1-11.7,5.2c-4.5,2.6-8.7,5.7-12.6,9C12.6,134,12.9,133.6,13.1,133.3z"/>
		<path class="st0" d="M25.1,136.1c0,0,16.5,28,44.8,35c0,0-29.2-2.9-52-31.3L25.1,136.1z"/>
	</g>
	<g>
		<g>
			<path class="st1" d="M222.9,60.3c3.5,0,6.3,0.4,8.4,1.1c2.1,0.7,3.8,1.9,5.2,3.6c0.5,0.6,1,1.4,1.4,2.2c0.4,0.9,0.8,1.9,1.1,3
				c0.3,1.1,0.5,2.2,0.7,3.4c0.2,1.2,0.2,2.4,0.2,3.7c0,1.5-0.1,3-0.4,4.7c-0.3,1.6-0.6,3.1-1,4.3c-0.6,1.9-1.5,3.4-2.7,4.5
				c-1.2,1.1-2.7,2-4.5,2.6c-0.5,0.2-1,0.3-1.5,0.4c-0.5,0.1-1.1,0.2-1.7,0.2c-0.6,0.1-1.4,0.1-2.2,0.1c-0.8,0-1.8,0-2.9,0h-14.3
				V60.3H222.9z M215.8,88h7.1c1.6,0,2.9-0.2,4.1-0.6c1.1-0.4,2-0.9,2.6-1.7c0.7-0.9,1.3-2.1,1.7-3.6c0.4-1.5,0.6-3.2,0.6-5
				c0-2.1-0.3-3.9-0.8-5.6c-0.6-1.7-1.3-2.9-2.2-3.7c-0.7-0.6-1.5-1-2.4-1.2c-0.9-0.2-2.1-0.4-3.5-0.4h-7.1V88z"/>
			<path class="st1" d="M263.7,86.6l8.8-26.3H283V94h-6.8V68.7L267.3,94h-7.4l-8.3-25.3V94h-6.8V60.3h10.5L263.7,86.6z"/>
			<path class="st1" d="M307.9,94h-7.2l-14.2-33.7h8.1l9.9,25.4l10.1-25.4h8.1L307.9,94z"/>
			<path class="st1" d="M346.1,94h-7.2V60.3h16.8c1.5,0,2.7,0,3.8,0.1c1,0.1,1.9,0.2,2.7,0.5c0.8,0.2,1.4,0.6,2,1
				c0.6,0.4,1.1,0.9,1.7,1.5c2,2.2,3,4.8,3,7.9c0,1.8-0.3,3.5-1,5c-0.7,1.6-1.6,2.8-2.7,3.8c-0.5,0.4-1,0.8-1.5,1
				c-0.5,0.3-1,0.5-1.6,0.7c-0.6,0.2-1.3,0.3-2,0.4c-0.7,0.1-1.6,0.1-2.5,0.1h-11.5V94z M355.8,76.2c1,0,1.8-0.1,2.3-0.2
				s1.1-0.4,1.4-0.8c0.5-0.4,0.8-0.9,1.1-1.7c0.3-0.8,0.4-1.6,0.4-2.6c0-1.1-0.2-2.1-0.7-2.8c-0.4-0.8-1-1.3-1.8-1.6
				c-0.6-0.2-1.4-0.3-2.6-0.3h-9.9v9.9H355.8z"/>
			<path class="st1" d="M384.4,69c2.2,0,4.2,0.3,5.9,1c1.7,0.7,3.1,1.7,4.2,3.1c1.9,2.4,2.8,5.3,2.8,8.8c0,1.9-0.3,3.6-0.9,5.2
				c-0.6,1.5-1.5,2.8-2.6,3.9c-1.1,1.1-2.5,1.9-4.1,2.5c-1.6,0.6-3.4,0.9-5.5,0.9c-4.1,0-7.2-1.1-9.5-3.3c-2.3-2.2-3.4-5.4-3.4-9.4
				c0-1.9,0.3-3.7,0.9-5.2c0.6-1.6,1.5-2.9,2.6-4c1.1-1.1,2.5-1.9,4.1-2.5C380.6,69.3,382.4,69,384.4,69z M384.2,74.2
				c-4,0-6,2.5-6,7.6c0,4.9,2.1,7.3,6.2,7.3c4,0,6-2.5,6-7.5C390.4,76.7,388.4,74.2,384.2,74.2z"/>
			<path class="st1" d="M413.9,69c2.2,0,4.2,0.3,5.9,1c1.7,0.7,3.1,1.7,4.2,3.1c1.9,2.4,2.8,5.3,2.8,8.8c0,1.9-0.3,3.6-0.9,5.2
				c-0.6,1.5-1.5,2.8-2.6,3.9c-1.1,1.1-2.5,1.9-4.1,2.5c-1.6,0.6-3.4,0.9-5.5,0.9c-4.1,0-7.2-1.1-9.5-3.3c-2.3-2.2-3.4-5.4-3.4-9.4
				c0-1.9,0.3-3.7,0.9-5.2c0.6-1.6,1.5-2.9,2.6-4c1.1-1.1,2.5-1.9,4.1-2.5C410,69.3,411.8,69,413.9,69z M413.7,74.2
				c-4,0-6,2.5-6,7.6c0,4.9,2.1,7.3,6.2,7.3c4,0,6-2.5,6-7.5C419.8,76.7,417.8,74.2,413.7,74.2z"/>
			<path class="st1" d="M431.8,94V60.3h6.8V94H431.8z"/>
			<path class="st1" d="M457.9,88h15.4c1.3,0,2.4-0.1,3.2-0.2c0.8-0.1,1.4-0.3,1.8-0.6c1.1-0.7,1.7-1.7,1.7-3.1
				c0-0.8-0.2-1.5-0.6-2.1c-0.4-0.6-0.9-1.1-1.6-1.5c-0.4-0.2-0.9-0.4-1.5-0.5c-0.6-0.1-1.3-0.2-2.1-0.2h-6.2c-2,0-3.7-0.2-5.1-0.5
				c-1.4-0.4-2.5-0.9-3.4-1.7c-1-0.9-1.8-2-2.4-3.3c-0.6-1.3-0.8-2.7-0.8-4.1c0-2.2,0.5-4.1,1.6-5.8c1.1-1.7,2.5-2.9,4.3-3.5
				c0.4-0.1,0.8-0.3,1.2-0.4c0.4-0.1,0.9-0.2,1.5-0.2c0.6-0.1,1.2-0.1,1.9-0.1c0.7,0,1.6,0,2.6,0h16.7v6H471c-0.8,0-1.4,0-1.9,0
				c-0.5,0-0.8,0-1.1,0.1c-0.3,0-0.6,0-0.8,0.1c-0.2,0-0.4,0.1-0.7,0.2c-0.7,0.2-1.3,0.6-1.7,1.2c-0.4,0.6-0.6,1.4-0.6,2.2
				c0,0.8,0.2,1.4,0.5,2c0.3,0.6,0.8,1,1.4,1.3c0.5,0.2,1,0.4,1.6,0.5c0.6,0.1,1.4,0.1,2.6,0.1h5.4c2.5,0,4.4,0.2,5.9,0.6
				c1.5,0.4,2.7,1.1,3.7,2.1c0.8,0.8,1.4,1.8,1.8,3.2c0.5,1.3,0.7,2.7,0.7,4.2c0,1.8-0.4,3.5-1.2,5.1c-0.8,1.6-1.8,2.7-3.1,3.5
				c-0.4,0.3-0.9,0.5-1.4,0.7c-0.5,0.2-1.1,0.3-1.8,0.4c-0.7,0.1-1.5,0.2-2.4,0.2c-0.9,0.1-2,0.1-3.2,0.1h-16.9V88z"/>
			<path class="st1" d="M513.1,84.3h-14.3c0.1,1,0.2,1.7,0.5,2.2c0.3,0.5,0.7,1,1.3,1.4c0.5,0.3,1,0.6,1.6,0.7
				c0.6,0.1,1.4,0.2,2.5,0.2h8.3V94h-9c-2,0-3.5-0.2-4.8-0.5c-1.2-0.3-2.4-0.9-3.5-1.8c-3-2.3-4.4-5.7-4.4-10.3c0-2.2,0.4-4.2,1.3-6
				c0.9-1.8,2-3.2,3.5-4.2c0.9-0.6,2-1.1,3.2-1.4c1.2-0.3,2.6-0.4,4.3-0.4h9.5v5.2h-9c-0.9,0-1.7,0.1-2.3,0.2
				c-0.6,0.1-1.2,0.4-1.6,0.7c-0.4,0.3-0.7,0.8-0.9,1.4c-0.2,0.6-0.4,1.3-0.4,2.2h14.3V84.3z"/>
			<path class="st1" d="M528.7,69.4c2.1,0,3.6,0.1,4.8,0.4c1.1,0.3,2.1,0.8,2.8,1.5c0.7,0.7,1.3,1.5,1.6,2.5c0.3,1,0.5,2.4,0.5,4.3
				v2.4h-6.5v-1.3c0-1.8-0.3-2.9-0.9-3.6c-0.6-0.6-1.7-1-3.4-1h-2V94h-6.8V69.4H528.7z"/>
			<path class="st1" d="M560.1,69.4h7.2L556.7,94h-7.3l-9.8-24.6h7.4l6.3,16.9L560.1,69.4z"/>
			<path class="st1" d="M570.9,60.3h6.8v6.6h-6.8V60.3z M577.8,69.4V94h-6.8V69.4H577.8z"/>
			<path class="st1" d="M604.9,74.6h-8.1c-2.5,0-4.4,0.6-5.5,1.7c-1.1,1.1-1.7,2.9-1.7,5.5c0,2.7,0.9,4.7,2.6,5.9
				c0.7,0.5,1.4,0.8,2.1,1c0.8,0.2,1.8,0.3,3.2,0.3h7.3V94h-9.3c-1.2,0-2.4-0.1-3.3-0.2c-1-0.1-1.8-0.3-2.6-0.6
				c-0.8-0.3-1.5-0.6-2.1-1.1c-0.6-0.4-1.2-1-1.7-1.6c-2.1-2.4-3.2-5.4-3.2-9c0-4.4,1.3-7.7,3.8-9.8c1-0.9,2.2-1.5,3.6-1.9
				c1.4-0.4,3.2-0.6,5.5-0.6h9.3V74.6z"/>
			<path class="st1" d="M630.2,84.3H616c0.1,1,0.2,1.7,0.5,2.2c0.3,0.5,0.7,1,1.3,1.4c0.5,0.3,1,0.6,1.6,0.7
				c0.6,0.1,1.4,0.2,2.5,0.2h8.3V94h-9c-2,0-3.5-0.2-4.8-0.5c-1.2-0.3-2.4-0.9-3.5-1.8c-3-2.3-4.4-5.7-4.4-10.3c0-2.2,0.4-4.2,1.3-6
				c0.9-1.8,2-3.2,3.5-4.2c0.9-0.6,2-1.1,3.2-1.4c1.2-0.3,2.6-0.4,4.3-0.4h9.5v5.2h-9c-0.9,0-1.7,0.1-2.3,0.2
				c-0.6,0.1-1.2,0.4-1.6,0.7c-0.4,0.3-0.7,0.8-0.9,1.4c-0.2,0.6-0.4,1.3-0.4,2.2h14.3V84.3z"/>
			<path class="st1" d="M641.2,94h-6.1v-6.6h6.1V94z"/>
		</g>
		<g>
			<path class="st4" d="M313.6,114.8l3.9-14.3h4.5l4,14.3l4.3-14.3h4.1l-6.1,18.9h-4.6l-3.9-13.7l-3.9,13.7h-4.6l-6.1-18.9h4.2
				L313.6,114.8z"/>
			<path class="st4" d="M346.7,114h-8c0,0.5,0.1,1,0.3,1.3c0.2,0.3,0.4,0.6,0.7,0.8c0.3,0.2,0.6,0.3,0.9,0.4
				c0.3,0.1,0.8,0.1,1.4,0.1h4.7v2.9h-5.1c-1.1,0-2-0.1-2.7-0.3c-0.7-0.2-1.3-0.5-2-1c-1.7-1.3-2.5-3.2-2.5-5.8
				c0-1.2,0.2-2.3,0.7-3.4c0.5-1,1.1-1.8,2-2.4c0.5-0.4,1.1-0.6,1.8-0.8c0.7-0.2,1.5-0.2,2.4-0.2h5.3v2.9h-5.1c-0.5,0-0.9,0-1.3,0.1
				c-0.4,0.1-0.7,0.2-0.9,0.4c-0.2,0.2-0.4,0.5-0.5,0.8c-0.1,0.3-0.2,0.7-0.2,1.2h8V114z"/>
			<path class="st4" d="M372.1,111.7h-11.3v7.8h-4.1v-9.9c0-1.2,0.1-2.3,0.2-3.3c0.1-0.9,0.3-1.7,0.5-2.1c0.8-1.8,2.4-2.9,4.5-3.4
				c0.3-0.1,0.5-0.1,0.7-0.1c0.2,0,0.5-0.1,0.7-0.1c0.3,0,0.5,0,0.9,0c0.3,0,0.7,0,1.2,0h6.5v3.4h-6c-0.8,0-1.6,0-2.2,0.1
				c-0.7,0.1-1.2,0.2-1.5,0.4c-1,0.5-1.5,1.4-1.5,2.9v1h11.3V111.7z"/>
			<path class="st4" d="M374.6,100.5h3.8v3.7h-3.8V100.5z M378.4,105.6v13.8h-3.8v-13.8H378.4z"/>
			<path class="st4" d="M380.6,105.6h4.2l2.9,4.1l2.8-4.1h4.5l-5.2,7l5.2,6.8h-4.5l-2.8-3.9l-2.9,3.9h-4.5l5.2-6.8L380.6,105.6z"/>
			<path class="st4" d="M408.9,113.8h-6.6v-3.4h6.6V113.8z"/>
			<path class="st4" d="M416.1,100.5h4.7l4.4,7.4l4.6-7.4h4.8l-7.4,10.8v8.2h-4.1v-8.3L416.1,100.5z"/>
			<path class="st4" d="M440.4,105.4c1.2,0,2.4,0.2,3.3,0.6c1,0.4,1.7,1,2.3,1.7c1.1,1.3,1.6,3,1.6,4.9c0,1.1-0.2,2-0.5,2.9
				c-0.3,0.9-0.8,1.6-1.5,2.2c-0.6,0.6-1.4,1.1-2.3,1.4c-0.9,0.3-1.9,0.5-3.1,0.5c-2.3,0-4.1-0.6-5.3-1.9c-1.3-1.2-1.9-3-1.9-5.3
				c0-1.1,0.2-2.1,0.5-2.9c0.4-0.9,0.8-1.6,1.5-2.2c0.6-0.6,1.4-1.1,2.3-1.4C438.3,105.6,439.3,105.4,440.4,105.4z M440.3,108.4
				c-2.3,0-3.4,1.4-3.4,4.3c0,2.7,1.2,4.1,3.5,4.1c2.3,0,3.4-1.4,3.4-4.2C443.8,109.7,442.6,108.4,440.3,108.4z"/>
			<path class="st4" d="M459.5,105.7h3.8v13.8h-7.5c-0.5,0-1,0-1.4-0.1c-0.4,0-0.8-0.1-1.1-0.2c-0.3-0.1-0.6-0.2-0.8-0.3
				c-0.2-0.1-0.5-0.3-0.7-0.5c-1-0.9-1.4-2.3-1.4-4.2v-8.5h3.8v8.9c0,0.6,0.2,1.1,0.5,1.5c0.3,0.4,0.8,0.5,1.3,0.5h3.5V105.7z"/>
			<path class="st4" d="M474.2,116.1h8.6c0.8,0,1.4,0,1.8-0.1s0.8-0.2,1-0.3c0.6-0.4,0.9-1,0.9-1.7c0-0.4-0.1-0.8-0.3-1.2
				c-0.2-0.4-0.5-0.6-0.9-0.8c-0.2-0.1-0.5-0.2-0.8-0.3c-0.4-0.1-0.8-0.1-1.2-0.1h-3.5c-1.1,0-2.1-0.1-2.9-0.3
				c-0.8-0.2-1.4-0.5-1.9-1c-0.6-0.5-1-1.1-1.3-1.8c-0.3-0.7-0.5-1.5-0.5-2.3c0-1.2,0.3-2.3,0.9-3.3c0.6-1,1.4-1.6,2.4-1.9
				c0.2-0.1,0.4-0.1,0.7-0.2c0.2-0.1,0.5-0.1,0.8-0.1c0.3,0,0.7,0,1.1-0.1c0.4,0,0.9,0,1.4,0h9.4v3.4h-8.5c-0.5,0-0.8,0-1.1,0
				c-0.3,0-0.5,0-0.6,0c-0.2,0-0.3,0-0.4,0c-0.1,0-0.2,0-0.4,0.1c-0.4,0.1-0.7,0.3-0.9,0.7c-0.2,0.4-0.3,0.8-0.3,1.3
				c0,0.4,0.1,0.8,0.3,1.1c0.2,0.3,0.5,0.6,0.8,0.7c0.3,0.1,0.6,0.2,0.9,0.3c0.3,0,0.8,0.1,1.5,0.1h3c1.4,0,2.5,0.1,3.3,0.4
				c0.8,0.2,1.5,0.6,2.1,1.2c0.4,0.4,0.8,1,1,1.8c0.3,0.8,0.4,1.5,0.4,2.4c0,1-0.2,2-0.7,2.8c-0.4,0.9-1,1.5-1.8,2
				c-0.2,0.2-0.5,0.3-0.8,0.4c-0.3,0.1-0.6,0.2-1,0.2c-0.4,0.1-0.8,0.1-1.3,0.1c-0.5,0-1.1,0-1.8,0h-9.5V116.1z"/>
			<path class="st4" d="M501.8,105.7h3.8v10.9h4.1v-10.9h3.8v13.8h-14c-0.6,0-1.2,0-1.6-0.1c-0.5,0-0.9-0.1-1.3-0.2
				c-0.4-0.1-0.7-0.2-0.9-0.4c-0.3-0.2-0.5-0.4-0.7-0.6c-0.4-0.4-0.7-1-0.9-1.6c-0.2-0.6-0.3-1.3-0.3-2.1v-8.8h3.8v8.2
				c0,0.7,0,1.2,0.1,1.4c0.1,0.3,0.2,0.5,0.4,0.7c0.4,0.4,0.9,0.5,1.7,0.5h2V105.7z"/>
			<path class="st4" d="M517.3,100.5h3.8v3.7h-3.8V100.5z M521.1,105.6v13.8h-3.8v-13.8H521.1z"/>
			<path class="st4" d="M538.8,105.6c0.6,0,1.2,0,1.6,0.1s0.9,0.1,1.3,0.2s0.7,0.2,0.9,0.4c0.3,0.2,0.5,0.4,0.7,0.6
				c0.4,0.4,0.7,1,0.9,1.6c0.2,0.6,0.3,1.4,0.3,2.1v8.8h-3.8v-8.2c0-0.3,0-0.6,0-0.9c0-0.2,0-0.4-0.1-0.6c0-0.2-0.1-0.3-0.2-0.4
				c-0.1-0.1-0.2-0.2-0.3-0.3c-0.4-0.4-0.9-0.5-1.7-0.5h-2v10.9h-3.8v-10.9h-4.1v10.9h-3.8v-13.8H538.8z"/>
		</g>
	</g>
</g>
</svg>
